Home - Long COVID - an update
…
Here’s a quick overview on the hospitalisation rates across all the studies from this paper.

df_hosp <- df %>% 
  select(`Author (country)`, `Hospital (%) {ICU (%)}`)
df_hosp

# A tibble: 75 × 2
   `Author (country)` `Hospital (%) {ICU (%)}`
   <chr>              <chr>                   
 1 Bellan (Italy)     100 {12}                
 2 Bellan (Italy)     <NA>                    
 3 Bellan (Italy)     <NA>                    
 4 Bellan (Italy)     <NA>                    
 5 Bellan (Italy)     <NA>                    
 6 Bliddal (Denmark)  0                       
 7 Bliddal (Denmark)  <NA>                    
 8 Bliddal (Denmark)  <NA>                    
 9 Bliddal (Denmark)  <NA>                    
10 Bliddal (Denmark)  <NA>                    
# … with 65 more rows
# ℹ Use `print(n = ...)` to see more rows
…
Screenshot of the extra space(s) in dataframe

df_new %>% 
  # Remove % symbol, numbers and don't forget to remove spaces as well in the column! 
  mutate(Comorbidities = str_remove_all(Comorbidities, "[:digit:]|[%]|[ ]")) %>%
  # Add this line to filter out all the "NA"s
  filter(!is.na(Comorbidities)) %>% 
  # Count the comorbidities in descending order
  count(Comorbidities, sort = TRUE) 

# A tibble: 37 × 2
   Comorbidities     n
   <chr>         <int>
 1 diabetes         14
 2 hypertension     13
 3 IHD              10
 4 asthma            9
 5 COPD              9
 6 obesity           9
 7 CKD               6
 8 malignancy        5
 9 dyslipidaemia     4
10 liverdisease      4
# … with 27 more rows
# ℹ Use `print(n = ...)` to see more rows
…
# Change the text into a tibble
text_df <- tibble(line = 1:75, text = text1)
text_df

# A tibble: 75 × 2
    line text                                                                   
   <int> <chr>                                                                  
 1     1 .% myalgia, .% arthralgia                                              
 2     2 .% dyspnoea, .% cough, .% chest pain, .% reduced DLCO, normal spiromet…
 3     3 % PTSD symptoms                                                        
 4     4 % gustatory dysfunction, .% olfactory dysfunction                      
 5     5 .% diarrhoea                                                           
 6     6 fatigue, myalgia, arthralgia, chills, fever                            
 7     7 dyspnoea, cough, chest pain, sputum production                         
 8     8 memory issues, concentration issues, headache                          
 9     9 olfactory dysfunction, gustatory dysfunction, sore throat, rhinorrhoea…
10    10 diarrhoea, anorexia, abdominal pain, nausea                            
# … with 65 more rows
# ℹ Use `print(n = ...)` to see more rows

# Tokenise the texts in the selected column
text_df1 <- text_df %>% 
  unnest_tokens(word, text)
text_df1

# A tibble: 399 × 2
    line word      
   <int> <chr>     
 1     1 myalgia   
 2     1 arthralgia
 3     2 dyspnoea  
 4     2 cough     
 5     2 chest     
 6     2 pain      
 7     2 reduced   
 8     2 dlco      
 9     2 normal    
10     2 spirometry
# … with 389 more rows
# ℹ Use `print(n = ...)` to see more rows
…
