Portfolio - Phenotypes associated with rare diseases
…
Results for rare disorders with obligate or 100% frequency in patient’s populations were then filtered, showing disorder type, HPO frequency and disorder name. Specifically, I wanted to find out the disorder names associated with the “Disease” disorder type with HPO frequency of “Obligate (100%)”.

df_freq_ob <- df %>% 
  filter(`Disorder type` == "Disease", `HPO frequency` == "Obligate (100%)") %>% 
  select(`Disorder type`, `HPO frequency`, `Disorder name`)
df_freq_ob

# A tibble: 404 × 3
   `Disorder type` `HPO frequency` `Disorder name`                              
   <chr>           <chr>           <chr>                                        
 1 Disease         Obligate (100%) Retinoblastoma                               
 2 Disease         Obligate (100%) Parathyroid carcinoma                        
 3 Disease         Obligate (100%) Pituitary carcinoma                          
 4 Disease         Obligate (100%) Familial hypocalciuric hypercalcemia         
 5 Disease         Obligate (100%) Familial hypocalciuric hypercalcemia         
 6 Disease         Obligate (100%) Ravine syndrome                              
 7 Disease         Obligate (100%) Ravine syndrome                              
 8 Disease         Obligate (100%) Interstitial granulomatous dermatitis with a…
 9 Disease         Obligate (100%) Interstitial granulomatous dermatitis with a…
10 Disease         Obligate (100%) PLIN1-related familial partial lipodystrophy 
# … with 394 more rows
# ℹ Use `print(n = ...)` to see more rows

I’d then like to look into associated counts of appearance of each disorder name. When I cross-checked with the full dataset in table view, I’ve noted that the number of appearance of each disorder name is linked to the number of preferred HPO phenotype terms for each of these disorder types.

df2 <- df_freq_ob %>% 
  count(`Disorder name`) 
df2 %>% arrange(desc(n))

# A tibble: 239 × 2
   `Disorder name`                                                             n
   <chr>                                                                   <int>
 1 Autosomal recessive complex spastic paraplegia due to Kennedy pathway …    10
 2 STT3A-CDG                                                                   9
 3 STT3B-CDG                                                                   9
 4 Spastic paraplegia-Paget disease of bone syndrome                           8
 5 Oculocutaneous albinism type 5                                              7
 6 PLIN1-related familial partial lipodystrophy                                7
 7 Plummer-Vinson syndrome                                                     5
 8 SSR4-CDG                                                                    5
 9 Cholesterol-ester transfer protein deficiency                               4
10 Isolated follicle stimulating hormone deficiency                            4
# … with 229 more rows
# ℹ Use `print(n = ...)` to see more rows
…
As shown in the dataframe above, under the column name, “Preferred HPO term”, there were a total of ten different HPO phenotype terms associated with this particular rare disease with 100% HPO frequency within the patient population for this specific type of spastic paraplegia.

By using similar filtering method, we could quickly narrow down any particular rare disease of interest to find out specific phenotype or clinical features, along with associated HPO phenotype frequency, for further investigations.

For “Malformation syndrome”, a similar search process was used to find out what was the most common phenotypes associated with it.

df_freq_ma <- df %>% 
  filter(`Disorder type` == "Malformation syndrome", `HPO frequency` == "Obligate (100%)") %>%
  select(`Disorder type`, `HPO frequency`, `Disorder name`)
df_freq_ma

# A tibble: 125 × 3
   `Disorder type`       `HPO frequency` `Disorder name`                  
   <chr>                 <chr>           <chr>                            
 1 Malformation syndrome Obligate (100%) CLAPO syndrome                   
 2 Malformation syndrome Obligate (100%) CLAPO syndrome                   
 3 Malformation syndrome Obligate (100%) Weaver-Williams syndrome         
 4 Malformation syndrome Obligate (100%) Weaver-Williams syndrome         
 5 Malformation syndrome Obligate (100%) Weaver-Williams syndrome         
 6 Malformation syndrome Obligate (100%) Weaver-Williams syndrome         
 7 Malformation syndrome Obligate (100%) Weaver-Williams syndrome         
 8 Malformation syndrome Obligate (100%) Weaver-Williams syndrome         
 9 Malformation syndrome Obligate (100%) Lethal recessive chondrodysplasia
10 Malformation syndrome Obligate (100%) Lethal recessive chondrodysplasia
# … with 115 more rows
# ℹ Use `print(n = ...)` to see more rows

Count() was used to find out the number of appearance of each disorder name in descending order.

df3 <- df_freq_ma %>% 
  count(`Disorder name`)
df3 %>% arrange(desc(n))

# A tibble: 40 × 2
   `Disorder name`                                                             n
   <chr>                                                                   <int>
 1 Hydrocephalus-obesity-hypogonadism syndrome                                12
 2 Pelviscapular dysplasia                                                    11
 3 46,XX disorder of sex development-skeletal anomalies syndrome               9
 4 X-linked microcephaly-growth retardation-prognathism-cryptorchidism sy…     9
 5 Severe intellectual disability-hypotonia-strabismus-coarse face-planov…     7
 6 Lethal recessive chondrodysplasia                                           6
 7 Weaver-Williams syndrome                                                    6
 8 SERKAL syndrome                                                             5
 9 Patent ductus arteriosus-bicuspid aortic valve-hand anomalies syndrome      4
10 46,XX gonadal dysgenesis                                                    3
# … with 30 more rows
# ℹ Use `print(n = ...)` to see more rows
…
Malformation syndrome
Obligate (100%)
Hydrocephalus-obesity-hypogonadism syndrome
Short 4th metacarpal

Now, to add one more piece of work towards this exploratory data analysis, I thought to check out the Validation date column. “Validation date” in this context meant the dates when the annotations of HPO terms were made for each rare disorder, which were based on the source articles listed (as shown in the Source column).

Firstly, I started with the “Disease” disorder type and singled out the year component from the Validation date column.

df_val_date <- df %>% 
  mutate(year = year(`Validation date`), label = TRUE, abbr = FALSE)
df_val_date

# A tibble: 112,243 × 16
   Disorder gr…¹ Disor…² HPO d…³ Diagn…⁴ HPO f…⁵ HPO I…⁶ Prefe…⁷ Disor…⁸ Disor…⁹
   <chr>         <chr>     <dbl> <chr>   <chr>   <chr>   <chr>   <chr>     <dbl>
 1 Disorder      Disease      59 Diagno… Very f… HP:000… Pectus… Marfan…     558
 2 Disorder      Disease      59 Diagno… Very f… HP:000… Striae… Marfan…     558
 3 Disorder      Disease      59 Diagno… Very f… HP:000… Arachn… Marfan…     558
 4 Disorder      Disease      59 Diagno… Very f… HP:000… Dispro… Marfan…     558
 5 Disorder      Disease      59 Diagno… Very f… HP:000… Pes pl… Marfan…     558
 6 Disorder      Disease      59 Diagno… Very f… HP:000… Sponta… Marfan…     558
 7 Disorder      Disease      59 Diagno… Very f… HP:000… Dilata… Marfan…     558
 8 Disorder      Disease      59 Diagno… Freque… HP:000… Myopia  Marfan…     558
 9 Disorder      Disease      59 Diagno… Freque… HP:000… Dental… Marfan…     558
10 Disorder      Disease      59 Diagno… Freque… HP:000… Pectus… Marfan…     558
# … with 112,233 more rows, 7 more variables: Online <chr>, Source <chr>,
#   `Validation date` <dttm>, `Validation status` <chr>, year <dbl>,
#   label <lgl>, abbr <lgl>, and abbreviated variable names ¹​`Disorder group`,
#   ²​`Disorder type`, ³​`HPO disorder & clinical entity association count`,
#   ⁴​`Diagnostic criteria`, ⁵​`HPO frequency`, ⁶​`HPO ID`, ⁷​`Preferred HPO term`,
#   ⁸​`Disorder name`, ⁹​`Disorder Orphacode`
# ℹ Use `print(n = ...)` to see more rows, and `colnames()` to see all variable names

To show this in a dataframe, observations for “Disease” disorder type were shown by using a filter:

df_val_date_d <- df_val_date %>% 
  select(`Disorder type`, year) %>% 
  filter(`Disorder type` == "Disease")
df_val_date_d

# A tibble: 57,920 × 2
   `Disorder type`  year
   <chr>           <dbl>
 1 Disease          2016
 2 Disease          2016
 3 Disease          2016
 4 Disease          2016
 5 Disease          2016
 6 Disease          2016
 7 Disease          2016
 8 Disease          2016
 9 Disease          2016
10 Disease          2016
# … with 57,910 more rows
# ℹ Use `print(n = ...)` to see more rows
…
