Home - Long COVID - an update
…
Data inspection and wrangling

Here’s a quick overview on the hospitalisation rates across all the studies from this paper.

df_hosp <- df %>% 
  select(`Author (country)`, `Hospital (%) {ICU (%)}`)
df_hosp

# A tibble: 75 × 2
   `Author (country)` `Hospital (%) {ICU (%)}`
   <chr>              <chr>                   
 1 Bellan (Italy)     100 {12}                
 2 Bellan (Italy)     <NA>                    
 3 Bellan (Italy)     <NA>                    
 4 Bellan (Italy)     <NA>                    
 5 Bellan (Italy)     <NA>                    
 6 Bliddal (Denmark)  0                       
 7 Bliddal (Denmark)  <NA>                    
 8 Bliddal (Denmark)  <NA>                    
 9 Bliddal (Denmark)  <NA>                    
10 Bliddal (Denmark)  <NA>                    
# … with 65 more rows
# ℹ Use `print(n = ...)` to see more rows
…
df_hosp_icu <- df_hosp %>% 
  separate(`Hospital (%) {ICU (%)}`, c("Hospital (%)", "ICU (%)"))%>% 
  mutate(across(`Hospital (%)`, as.numeric))

Warning: Expected 2 pieces. Additional pieces discarded in 5 rows [1, 21, 23,
29, 45].

Warning: Expected 2 pieces. Missing pieces filled with `NA` in 12 rows [6, 13,
14, 25, 33, 34, 39, 55, 56, 62, 69, 75].

Warning in mask$eval_all_mutate(quo): NAs introduced by coercion

df_hosp_icu

# A tibble: 75 × 3
   `Author (country)` `Hospital (%)` `ICU (%)`
   <chr>                       <dbl> <chr>    
 1 Bellan (Italy)                100 12       
 2 Bellan (Italy)                 NA <NA>     
 3 Bellan (Italy)                 NA <NA>     
 4 Bellan (Italy)                 NA <NA>     
 5 Bellan (Italy)                 NA <NA>     
 6 Bliddal (Denmark)               0 <NA>     
 7 Bliddal (Denmark)              NA <NA>     
 8 Bliddal (Denmark)              NA <NA>     
 9 Bliddal (Denmark)              NA <NA>     
10 Bliddal (Denmark)              NA <NA>     
# … with 65 more rows
# ℹ Use `print(n = ...)` to see more rows
…
Note: two of the studies were removed from the above, these studies were Chiesa-Estomba (Italy) and Mahmud (Bangladesh), which had “Not stated” recorded under Hospital (%) {ICU (%)} column. When the Hospital (%) column was converted from character to numeric, these two rows were converted to “NA” automatically. In total, there were 19 cohort studies as mentioned by the paper.

Separating rows

The following shows separating the listed co-morbidities for each study into separate rows, since separating into columns would in fact make the table looking even more complex by adding way too much columns, adding difficulties in data reading.

df_new <- df %>% 
  separate_rows(Comorbidities, sep = ", ")
df_new

# A tibble: 178 × 9
   Author (country…¹ Hospi…² Age  …³ Comor…⁴ Follo…⁵ Body …⁶ Results ...8  ...9 
   <chr>             <chr>     <dbl> <chr>     <dbl> <chr>   <chr>   <lgl> <lgl>
 1 Bellan (Italy)    100 {1…      61 "41% h…     107 Genera… 5.9% m… NA    NA   
 2 Bellan (Italy)    100 {1…      61 "15% d…     107 Genera… 5.9% m… NA    NA   
 3 Bellan (Italy)    100 {1…      61 "11% o…     107 Genera… 5.9% m… NA    NA   
 4 Bellan (Italy)    100 {1…      61 "11% e…     107 Genera… 5.9% m… NA    NA   
 5 Bellan (Italy)    100 {1…      61 "10% m…     107 Genera… 5.9% m… NA    NA   
 6 Bellan (Italy)    100 {1…      61 "9% IH…     107 Genera… 5.9% m… NA    NA   
 7 Bellan (Italy)    100 {1…      61 " 8% d…     107 Genera… 5.9% m… NA    NA   
 8 Bellan (Italy)    100 {1…      61 "7% AF"     107 Genera… 5.9% m… NA    NA   
 9 Bellan (Italy)    100 {1…      61 "6% CO…     107 Genera… 5.9% m… NA    NA   
10 Bellan (Italy)    100 {1…      61 " 6% C…     107 Genera… 5.9% m… NA    NA   
# … with 168 more rows, and abbreviated variable names ¹​`Author (country)`,
#   ²​`Hospital (%) {ICU (%)}`, ³​`Age  (years)`, ⁴​Comorbidities,
#   ⁵​`Follow-up time (days)`, ⁶​`Body system`
# ℹ Use `print(n = ...)` to see more rows
…
df_new %>% 
  mutate(Comorbidities = str_remove_all(Comorbidities, "[:digit:]|[%]|[ ]")) %>% # Remove % symbol, numbers and don't forget to remove spaces as well in the column! 
  filter(!is.na(Comorbidities)) %>%  # Add this line to filter out all the "NA"s
  count(Comorbidities, sort = TRUE) # Count the comorbidities in descending order

# A tibble: 37 × 2
   Comorbidities     n
   <chr>         <int>
 1 diabetes         14
 2 hypertension     13
 3 IHD              10
 4 asthma            9
 5 COPD              9
 6 obesity           9
 7 CKD               6
 8 malignancy        5
 9 dyslipidaemia     4
10 liverdisease      4
# … with 27 more rows
# ℹ Use `print(n = ...)` to see more rows
…
library(dplyr)
text_df <- tibble(line = 1:75, text = text1)
text_df

# A tibble: 75 × 2
    line text                                                                   
   <int> <chr>                                                                  
 1     1 .% myalgia, .% arthralgia                                              
 2     2 .% dyspnoea, .% cough, .% chest pain, .% reduced DLCO, normal spiromet…
 3     3 % PTSD symptoms                                                        
 4     4 % gustatory dysfunction, .% olfactory dysfunction                      
 5     5 .% diarrhoea                                                           
 6     6 Fatigue, myalgia, arthralgia, chills, fever                            
 7     7 Dyspnoea, cough, chest pain, sputum production                         
 8     8 Memory issues, concentration issues, headache                          
 9     9 Olfactory dysfunction, gustatory dysfunction, sore throat, rhinorrhoea…
10    10 Diarrhoea, anorexia, abdominal pain, nausea                            
# … with 65 more rows
# ℹ Use `print(n = ...)` to see more rows

Import tidytext library and tokenise the texts in the selected column.

library(tidytext)
text_df1 <- text_df %>% 
  unnest_tokens(word, text)
text_df1

# A tibble: 399 × 2
    line word      
   <int> <chr>     
 1     1 myalgia   
 2     1 arthralgia
 3     2 dyspnoea  
 4     2 cough     
 5     2 chest     
 6     2 pain      
 7     2 reduced   
 8     2 dlco      
 9     2 normal    
10     2 spirometry
# … with 389 more rows
# ℹ Use `print(n = ...)` to see more rows
…
